C:\Desenvolvimento\Projetos\Java\cad-ws\svs-fin\modulos\api\src\main\java\br\com\gruposaga\cad\svs\fin\ws\api\WsClienteSvs.java
C:\Desenvolvimento\Projetos\Java\cad-ws\svs-fin\modulos\api\src\main\java\br\com\gruposaga\cad\svs\fin\modelo\pojo\EntidadeTesteConsultaPojo.java
C:\Desenvolvimento\Projetos\Java\cad-ws\svs-fin\modulos\api\src\main\java\br\com\gruposaga\cad\svs\fin\ws\api\WsEntidadeTeste.java
C:\Desenvolvimento\Projetos\Java\cad-ws\svs-fin\modulos\api\src\main\java\br\com\gruposaga\cad\svs\fin\ws\api\WebServicesSvsFin.java
